# 3ds Max Wavefront OBJ Exporter v0.97b - (c)2007 guruware
# File Created: 11.07.2021 17:57:02

mtllib Arbres_07.mtl

#
# object Plane001
#

v  14.6773 -6.0530 0.9351
v  14.6773 -10.8704 0.9351
v  10.8907 -10.8704 4.2709
v  10.8907 -6.0530 4.2709
v  7.1042 -10.8704 7.6068
v  7.1042 -6.0530 7.6068
v  3.3176 -10.8704 10.9427
v  3.3176 -6.0530 10.9427
v  -0.4690 -10.8704 14.2785
v  -0.4690 -6.0530 14.2785
v  14.6773 -1.2356 0.9351
v  10.8907 -1.2356 4.2709
v  7.1042 -1.2356 7.6068
v  3.3176 -1.2356 10.9427
v  -0.4690 -1.2356 14.2785
v  14.6773 3.5818 0.9351
v  10.8907 3.5818 4.2709
v  7.1042 3.5818 7.6068
v  3.3176 3.5818 10.9427
v  -0.4690 3.5818 14.2785
v  14.6773 8.3992 0.9351
v  10.8907 8.3992 4.2709
v  7.1042 8.3992 7.6068
v  3.3176 8.3992 10.9427
v  -0.4690 8.3992 14.2785
# 25 vertices

vn -0.6610 -0.0000 -0.7504
vn -0.6610 0.0000 -0.7504
# 2 vertex normals

vt 0.1014 0.0585 0.0000
vt 0.1004 0.0668 0.0000
vt 0.1010 0.0668 0.0000
vt 0.1020 0.0585 0.0000
vt 0.1016 0.0668 0.0000
vt 0.1026 0.0585 0.0000
vt 0.1023 0.0668 0.0000
vt 0.1033 0.0585 0.0000
vt 0.1029 0.0668 0.0000
vt 0.1039 0.0585 0.0000
vt 0.1023 0.0502 0.0000
vt 0.1030 0.0502 0.0000
vt 0.1036 0.0502 0.0000
vt 0.1043 0.0502 0.0000
vt 0.1049 0.0502 0.0000
vt 0.1033 0.0420 0.0000
vt 0.1040 0.0420 0.0000
vt 0.1046 0.0420 0.0000
vt 0.1053 0.0420 0.0000
vt 0.1059 0.0420 0.0000
vt 0.1043 0.0337 0.0000
vt 0.1050 0.0337 0.0000
vt 0.1056 0.0337 0.0000
vt 0.1063 0.0337 0.0000
vt 0.1069 0.0337 0.0000
# 25 texture coords

o Plane001
g Plane001
usemtl 06___Default
s 1
f 1/1/1 2/2/1 3/3/2 4/4/1 
f 4/4/1 3/3/2 5/5/2 6/6/1 
f 6/6/1 5/5/2 7/7/1 8/8/1 
f 8/8/1 7/7/1 9/9/2 10/10/2 
f 11/11/2 1/1/1 4/4/1 12/12/1 
f 12/12/1 4/4/1 6/6/1 13/13/1 
f 13/13/1 6/6/1 8/8/1 14/14/1 
f 14/14/1 8/8/1 10/10/2 15/15/2 
f 16/16/1 11/11/2 12/12/1 17/17/1 
f 17/17/1 12/12/1 13/13/1 18/18/1 
f 18/18/1 13/13/1 14/14/1 19/19/1 
f 19/19/1 14/14/1 15/15/2 20/20/1 
f 21/21/1 16/16/1 17/17/1 22/22/2 
f 22/22/2 17/17/1 18/18/1 23/23/1 
f 23/23/1 18/18/1 19/19/1 24/24/1 
f 24/24/1 19/19/1 20/20/1 25/25/1 
# 16 polygons

