# 3ds Max Wavefront OBJ Exporter v0.97b - (c)2007 guruware
# File Created: 04.01.2021 21:09:18

mtllib Deco1_06.mtl

#
# object Deco1_06
#

v  -1.8202 0.5492 -1.2742
v  -1.8581 0.5771 -1.2682
v  -1.8670 0.5492 -1.2667
v  -1.8347 0.5943 -1.2719
v  -1.8057 0.5943 -1.2766
v  -1.7823 0.5771 -1.2803
v  -1.7734 0.5492 -1.2818
v  -1.7823 0.5214 -1.2803
v  -1.8058 0.5041 -1.2766
v  -1.8346 0.5041 -1.2719
v  -1.8581 0.5214 -1.2682
v  -1.8690 0.5851 -1.2664
v  -1.8805 0.5492 -1.2645
v  -1.8388 0.6073 -1.2712
v  -1.8016 0.6073 -1.2772
v  -1.7714 0.5851 -1.2821
v  -1.7599 0.5492 -1.2839
v  -1.7714 0.5133 -1.2821
v  -1.8016 0.4910 -1.2772
v  -1.8388 0.4910 -1.2712
v  -1.8690 0.5133 -1.2664
v  -1.9258 0.5851 -1.6200
v  -1.9373 0.5492 -1.6181
v  -1.8956 0.6073 -1.6248
v  -1.8583 0.6073 -1.6308
v  -1.8282 0.5851 -1.6357
v  -1.8167 0.5492 -1.6375
v  -1.9258 0.5133 -1.6200
v  -1.8956 0.4910 -1.6248
v  -1.8282 0.5133 -1.6357
v  -1.8583 0.4910 -1.6308
v  -1.9090 0.5728 -1.6227
v  -1.9165 0.5492 -1.6215
v  -1.8892 0.5873 -1.6259
v  -1.8648 0.5873 -1.6298
v  -1.8450 0.5728 -1.6330
v  -1.8374 0.5492 -1.6342
v  -1.8450 0.5257 -1.6330
v  -1.8648 0.5111 -1.6298
v  -1.8892 0.5111 -1.6259
v  -1.9090 0.5257 -1.6227
v  -1.8770 0.5492 -1.6278
v  -1.8587 0.6874 -1.3582
v  -1.8704 0.7062 -1.3890
v  -1.8828 0.6865 -1.3876
v  -1.8535 0.7187 -1.3786
v  -1.8386 0.7192 -1.3605
v  -1.8314 0.7075 -1.3415
v  -1.8347 0.6882 -1.3289
v  -1.8471 0.6685 -1.3275
v  -1.8640 0.6561 -1.3378
v  -1.8789 0.6555 -1.3559
v  -1.8861 0.6672 -1.3750
v  -1.8737 0.7116 -1.3979
v  -1.8898 0.6863 -1.3961
v  -1.8519 0.7277 -1.3845
v  -1.8328 0.7284 -1.3611
v  -1.8235 0.7134 -1.3366
v  -1.8277 0.6885 -1.3204
v  -1.8438 0.6631 -1.3186
v  -1.8656 0.6469 -1.3319
v  -1.8848 0.6462 -1.3553
v  -1.8940 0.6613 -1.3798
v  -1.6131 0.5435 -1.5736
v  -1.6292 0.5182 -1.5718
v  -1.5913 0.5596 -1.5603
v  -1.5722 0.5603 -1.5369
v  -1.5629 0.5453 -1.5124
v  -1.5671 0.5204 -1.4961
v  -1.6334 0.4932 -1.5555
v  -1.6242 0.4781 -1.5310
v  -1.5831 0.4950 -1.4943
v  -1.6050 0.4788 -1.5076
v  -1.6080 0.5352 -1.5599
v  -1.6185 0.5186 -1.5588
v  -1.5937 0.5457 -1.5512
v  -1.5811 0.5461 -1.5359
v  -1.5750 0.5363 -1.5198
v  -1.5778 0.5200 -1.5092
v  -1.5883 0.5034 -1.5080
v  -1.6026 0.4928 -1.5167
v  -1.6151 0.4924 -1.5320
v  -1.6212 0.5022 -1.5481
v  -1.5981 0.5193 -1.5340
v  -1.6354 0.5263 -1.2866
v  -1.6515 0.5409 -1.2741
v  -1.6554 0.5263 -1.2712
v  -1.6416 0.5499 -1.2818
v  -1.6293 0.5499 -1.2913
v  -1.6193 0.5409 -1.2990
v  -1.6155 0.5263 -1.3020
v  -1.6193 0.5118 -1.2990
v  -1.6293 0.5028 -1.2913
v  -1.6416 0.5028 -1.2818
v  -1.6515 0.5118 -1.2741
v  -1.6562 0.5451 -1.2705
v  -1.6611 0.5263 -1.2667
v  -1.6434 0.5567 -1.2804
v  -1.6275 0.5567 -1.2927
v  -1.6147 0.5451 -1.3026
v  -1.6097 0.5263 -1.3064
v  -1.6147 0.5076 -1.3026
v  -1.6275 0.4959 -1.2927
v  -1.6434 0.4959 -1.2804
v  -1.6562 0.5076 -1.2705
v  -1.7987 0.5451 -1.5224
v  -1.8036 0.5263 -1.5186
v  -1.7859 0.5567 -1.5323
v  -1.7700 0.5567 -1.5446
v  -1.7572 0.5451 -1.5545
v  -1.7522 0.5263 -1.5583
v  -1.7987 0.5076 -1.5224
v  -1.7859 0.4959 -1.5323
v  -1.7572 0.5076 -1.5545
v  -1.7700 0.4959 -1.5446
v  -1.7915 0.5386 -1.5279
v  -1.7948 0.5263 -1.5254
v  -1.7831 0.5462 -1.5344
v  -1.7727 0.5462 -1.5425
v  -1.7643 0.5386 -1.5490
v  -1.7611 0.5263 -1.5514
v  -1.7643 0.5141 -1.5490
v  -1.7727 0.5065 -1.5424
v  -1.7831 0.5065 -1.5344
v  -1.7915 0.5141 -1.5279
v  -1.7779 0.5263 -1.5384
v  -1.8364 0.8242 -1.4090
v  -1.8610 0.8300 -1.3808
v  -1.8426 0.8188 -1.3719
v  -1.8700 0.8390 -1.4005
v  -1.8662 0.8423 -1.4234
v  -1.8509 0.8386 -1.4408
v  -1.8301 0.8295 -1.4461
v  -1.8117 0.8183 -1.4372
v  -1.8027 0.8094 -1.4175
v  -1.8065 0.8061 -1.3946
v  -1.8218 0.8097 -1.3771
v  -1.8681 0.8317 -1.3727
v  -1.8444 0.8173 -1.3612
v  -1.8797 0.8432 -1.3980
v  -1.8748 0.8475 -1.4276
v  -1.8551 0.8428 -1.4500
v  -1.8283 0.8310 -1.4568
v  -1.8046 0.8166 -1.4453
v  -1.7929 0.8050 -1.4199
v  -1.7978 0.8008 -1.3904
v  -1.8176 0.8055 -1.3679
v  -2.0190 0.5233 -1.4687
v  -1.9952 0.5089 -1.4572
v  -2.0306 0.5349 -1.4940
v  -2.0256 0.5391 -1.5236
v  -2.0060 0.5344 -1.5460
v  -1.9792 0.5227 -1.5528
v  -1.9684 0.4971 -1.4639
v  -1.9487 0.4924 -1.4864
v  -1.9554 0.5082 -1.5413
v  -1.9437 0.4966 -1.5159
v  -2.0080 0.5207 -1.4812
v  -1.9925 0.5113 -1.4737
v  -2.0156 0.5283 -1.4978
v  -2.0124 0.5311 -1.5172
v  -1.9995 0.5280 -1.5319
v  -1.9819 0.5203 -1.5363
v  -1.9664 0.5108 -1.5288
v  -1.9588 0.5033 -1.5121
v  -1.9620 0.5005 -1.4928
v  -1.9749 0.5036 -1.4781
v  -1.9872 0.5158 -1.5050
v  -1.9519 0.4856 -1.3223
v  -1.9700 0.4858 -1.3396
v  -1.9572 0.4809 -1.3464
v  -1.9759 0.4905 -1.3261
v  -1.9726 0.4934 -1.3111
v  -1.9614 0.4932 -1.3004
v  -1.9466 0.4902 -1.2981
v  -1.9338 0.4854 -1.3050
v  -1.9279 0.4806 -1.3185
v  -1.9312 0.4778 -1.3334
v  -1.9424 0.4779 -1.3441
v  -1.9752 0.4858 -1.3446
v  -1.9587 0.4796 -1.3534
v  -1.9828 0.4919 -1.3272
v  -1.9786 0.4956 -1.3079
v  -1.9642 0.4955 -1.2941
v  -1.9451 0.4915 -1.2911
v  -1.9286 0.4853 -1.3000
v  -1.9209 0.4792 -1.3174
v  -1.9251 0.4755 -1.3366
v  -1.9396 0.4757 -1.3504
v  -1.9002 0.7641 -1.3712
v  -1.8837 0.7578 -1.3801
v  -1.9078 0.7702 -1.3538
v  -1.9036 0.7738 -1.3345
v  -1.8892 0.7737 -1.3207
v  -1.8701 0.7697 -1.3177
v  -1.8646 0.7539 -1.3770
v  -1.8501 0.7537 -1.3633
v  -1.8536 0.7635 -1.3266
v  -1.8459 0.7574 -1.3440
v  -1.8922 0.7640 -1.3635
v  -1.8814 0.7599 -1.3693
v  -1.8972 0.7680 -1.3521
v  -1.8944 0.7704 -1.3395
v  -1.8849 0.7703 -1.3304
v  -1.8724 0.7677 -1.3285
v  -1.8616 0.7636 -1.3343
v  -1.8566 0.7596 -1.3457
v  -1.8594 0.7572 -1.3583
v  -1.8688 0.7573 -1.3673
v  -1.8769 0.7638 -1.3489
v  -1.7244 0.4840 -1.3049
v  -1.7295 0.4854 -1.2804
v  -1.7425 0.4816 -1.2875
v  -1.7146 0.4886 -1.2826
v  -1.7034 0.4901 -1.2933
v  -1.7002 0.4892 -1.3084
v  -1.7063 0.4864 -1.3222
v  -1.7193 0.4826 -1.3293
v  -1.7343 0.4793 -1.3271
v  -1.7454 0.4778 -1.3164
v  -1.7486 0.4787 -1.3013
v  -1.7310 0.4858 -1.2733
v  -1.7478 0.4809 -1.2825
v  -1.7117 0.4900 -1.2762
v  -1.6973 0.4919 -1.2900
v  -1.6932 0.4908 -1.3094
v  -1.7011 0.4871 -1.3272
v  -1.7178 0.4822 -1.3364
v  -1.7372 0.4780 -1.3336
v  -1.7516 0.4761 -1.3198
v  -1.7556 0.4772 -1.3003
v  -1.7637 0.7479 -1.3276
v  -1.7805 0.7416 -1.3360
v  -1.7445 0.7516 -1.3310
v  -1.7300 0.7514 -1.3450
v  -1.7260 0.7473 -1.3640
v  -1.7338 0.7410 -1.3810
v  -1.7884 0.7353 -1.3529
v  -1.7843 0.7312 -1.3721
v  -1.7506 0.7348 -1.3894
v  -1.7699 0.7310 -1.3860
v  -1.7615 0.7456 -1.3382
v  -1.7725 0.7415 -1.3437
v  -1.7488 0.7480 -1.3405
v  -1.7394 0.7479 -1.3496
v  -1.7367 0.7453 -1.3621
v  -1.7419 0.7411 -1.3732
v  -1.7528 0.7370 -1.3787
v  -1.7655 0.7346 -1.3765
v  -1.7749 0.7347 -1.3674
v  -1.7776 0.7374 -1.3548
v  -1.7572 0.7413 -1.3585
v  -1.6275 0.6022 -1.7076
v  -1.6404 0.5781 -1.7794
v  -1.7284 0.5484 -1.8032
v  -1.7434 0.5590 -1.7940
v  -1.5638 0.4856 -1.6625
v  -1.5989 0.4856 -1.8304
v  -1.6274 0.5741 -1.7818
v  -1.6168 0.5982 -1.7143
v  -1.6109 0.4856 -1.8420
v  -1.7259 0.4856 -1.8731
v  -1.7226 0.5446 -1.8161
v  -1.6399 0.5743 -1.7937
v  -1.7414 0.4856 -1.8684
v  -1.8436 0.4856 -1.7765
v  -1.7509 0.5550 -1.8026
v  -1.7386 0.5444 -1.8112
v  -1.5692 0.4856 -1.6488
v  -1.6225 0.5982 -1.6999
v  -1.7151 0.5503 -1.6784
v  -1.7510 0.4856 -1.6005
v  -1.7213 0.5543 -1.6898
v  -1.7505 0.5551 -1.7879
v  -1.8432 0.4856 -1.7626
v  -1.7660 0.4856 -1.6026
v  -1.7306 0.5503 -1.6806
v  -1.4032 0.5774 -1.4988
v  -1.4568 0.5656 -1.5687
v  -1.5077 0.5651 -1.4774
v  -1.4680 0.5821 -1.4117
v  -1.4821 0.4856 -1.6261
v  -1.5772 0.4856 -1.4851
v  -1.5201 0.5612 -1.4841
v  -1.4699 0.5618 -1.5744
v  -1.5737 0.4856 -1.4693
v  -1.4758 0.4856 -1.3491
v  -1.4788 0.5780 -1.4078
v  -1.5165 0.5610 -1.4678
v  -1.4670 0.4856 -1.6331
v  -1.4543 0.5616 -1.5816
v  -1.3927 0.5733 -1.5065
v  -1.3338 0.4856 -1.5035
v  -1.4649 0.5781 -1.4028
v  -1.4627 0.4856 -1.3445
v  -1.3338 0.4856 -1.4883
v  -1.3928 0.5734 -1.4908
v  -1.5786 0.5780 -1.1203
v  -1.5085 0.5781 -1.1531
v  -1.5059 0.5763 -1.2136
v  -1.5959 0.5840 -1.2409
v  -1.5602 0.4856 -1.0346
v  -1.4529 0.4856 -1.1147
v  -1.5010 0.5741 -1.1423
v  -1.5680 0.5740 -1.1135
v  -1.4474 0.4856 -1.1305
v  -1.4414 0.4856 -1.2405
v  -1.4918 0.5724 -1.2137
v  -1.4953 0.5743 -1.1585
v  -1.4521 0.4856 -1.2526
v  -1.6164 0.4856 -1.3008
v  -1.5912 0.5800 -1.2514
v  -1.5029 0.5722 -1.2262
v  -1.5750 0.4856 -1.0338
v  -1.5834 0.5741 -1.1126
v  -1.6423 0.5753 -1.1638
v  -1.6995 0.4856 -1.1495
v  -1.6345 0.5793 -1.1742
v  -1.6045 0.5801 -1.2448
v  -1.6289 0.4856 -1.2946
v  -1.7039 0.4856 -1.1640
v  -1.6468 0.5753 -1.1789
v  -1.9332 0.5656 -1.0793
v  -2.0282 0.5642 -1.1151
v  -2.0369 0.5590 -1.0214
v  -1.8321 0.4856 -1.0882
v  -1.8896 0.4856 -1.1731
v  -1.9264 0.5616 -1.0900
v  -1.9062 0.4856 -1.1753
v  -2.0675 0.4856 -1.1729
v  -2.0311 0.5604 -1.1289
v  -1.9433 0.5575 -1.0960
v  -2.0773 0.4856 -1.1600
v  -2.0914 0.4856 -0.9893
v  -2.0480 0.5550 -1.0240
v  -2.0412 0.5602 -1.1155
v  -1.8284 0.4856 -1.0739
v  -1.9225 0.5659 -1.0713
v  -1.9520 0.5503 -0.9916
v  -1.9265 0.4856 -0.9383
v  -1.9637 0.5543 -0.9970
v  -2.0390 0.5551 -1.0123
v  -2.0828 0.4856 -0.9784
v  -1.9398 0.4856 -0.9311
v  -1.9658 0.5503 -0.9841
v  -2.1209 0.5779 -1.5887
v  -2.0509 0.5781 -1.6095
v  -2.0223 0.5484 -1.6829
v  -2.0991 0.5590 -1.7371
v  -2.1305 0.4856 -1.5015
v  -1.9971 0.4856 -1.5572
v  -2.0471 0.5741 -1.5968
v  -2.1130 0.5739 -1.5789
v  -1.9869 0.4856 -1.5705
v  -1.9526 0.4856 -1.6880
v  -2.0089 0.5446 -1.6785
v  -2.0366 0.5743 -1.6105
v  -1.9590 0.4856 -1.7029
v  -2.0998 0.4856 -1.8003
v  -2.0914 0.5550 -1.7455
v  -2.0155 0.5444 -1.6939
v  -2.1447 0.4856 -1.5054
v  -2.1279 0.5739 -1.5829
v  -2.1674 0.5503 -1.6785
v  -2.2263 0.4856 -1.6829
v  -2.1568 0.5543 -1.6859
v  -2.1060 0.5551 -1.7435
v  -2.1135 0.4856 -1.7984
v  -2.2259 0.4856 -1.6981
v  -2.1670 0.5503 -1.6942
v  -2.1266 0.5774 -1.4391
v  -2.2115 0.5656 -1.4627
v  -2.1972 0.5651 -1.3591
v  -2.1249 0.5821 -1.3524
v  -2.2662 0.4856 -1.4934
v  -2.2574 0.4856 -1.3236
v  -2.2112 0.5612 -1.3571
v  -2.2254 0.5618 -1.4594
v  -2.2451 0.4856 -1.3130
v  -2.0816 0.4856 -1.3044
v  -2.1313 0.5780 -1.3428
v  -2.1985 0.5610 -1.3462
v  -2.2583 0.4856 -1.5081
v  -2.2172 0.5616 -1.4746
v  -2.1229 0.5733 -1.4515
v  -2.0740 0.4856 -1.4846
v  -2.1171 0.5781 -1.3472
v  -2.0684 0.4856 -1.3086
v  -2.0649 0.4856 -1.4725
v  -2.1134 0.5734 -1.4390
# 390 vertices

vn 0.3036 0.0000 0.9528
vn 0.3036 -0.0000 0.9528
vn -0.5448 0.3053 0.7810
vn -0.5957 -0.0000 0.8032
vn -0.2207 0.7073 0.6716
vn 0.4875 0.6950 0.5285
vn 0.8162 0.2697 0.5110
vn 0.8568 0.0000 0.5157
vn 0.8164 -0.2684 0.5113
vn 0.4885 -0.6946 0.5281
vn -0.2223 -0.7067 0.6717
vn -0.5449 -0.3040 0.7814
vn -0.8162 0.2697 -0.5110
vn -0.8568 -0.0000 -0.5157
vn -0.4875 0.6950 -0.5285
vn 0.2208 0.7073 -0.6716
vn 0.5447 0.3053 -0.7810
vn 0.5957 -0.0000 -0.8032
vn -0.8164 -0.2684 -0.5113
vn -0.4886 -0.6946 -0.5281
vn 0.5449 -0.3040 -0.7814
vn 0.2223 -0.7067 -0.6717
vn -0.3036 0.0000 -0.9528
vn -0.3036 -0.0000 -0.9528
vn -0.3035 0.0000 -0.9528
vn -0.8825 0.3071 0.3562
vn -0.8825 0.3071 0.3561
vn -0.7460 0.5635 -0.3549
vn -0.9638 0.1623 -0.2115
vn -0.3206 0.9377 -0.1339
vn -0.0391 0.9458 0.3224
vn 0.0511 0.7162 0.6960
vn 0.0040 0.3596 0.9331
vn -0.2134 -0.0877 0.9730
vn -0.6263 -0.3918 0.6740
vn -0.9257 -0.2885 0.2447
vn -0.9967 -0.0799 -0.0134
vn 0.2138 0.0888 -0.9728
vn -0.0040 -0.3596 -0.9331
vn 0.6283 0.3917 -0.6722
vn 0.9255 0.2885 -0.2454
vn 0.9967 0.0807 0.0130
vn 0.9638 -0.1623 0.2115
vn -0.0509 -0.7154 -0.6969
vn 0.0383 -0.9454 -0.3235
vn 0.7477 -0.5615 0.3544
vn 0.3211 -0.9374 0.1350
vn 0.8825 -0.3071 -0.3562
vn 0.8375 0.0000 0.5464
vn 0.8375 -0.0000 0.5464
vn 0.8375 0.0000 0.5465
vn -0.1255 0.4147 0.9013
vn -0.1966 -0.0000 0.9805
vn 0.1502 0.7633 0.6284
vn 0.6674 0.7009 0.2517
vn 0.9525 0.2842 0.1093
vn 0.9954 0.0000 0.0954
vn 0.9529 -0.2827 0.1095
vn 0.6678 -0.7007 0.2511
vn 0.1484 -0.7627 0.6295
vn -0.1257 -0.4135 0.9018
vn -0.9525 0.2842 -0.1093
vn -0.9954 0.0000 -0.0954
vn -0.6674 0.7009 -0.2517
vn -0.1502 0.7633 -0.6284
vn 0.1256 0.4147 -0.9013
vn 0.1966 0.0000 -0.9805
vn -0.9529 -0.2827 -0.1095
vn -0.6678 -0.7007 -0.2511
vn 0.1257 -0.4135 -0.9018
vn -0.1484 -0.7627 -0.6295
vn -0.8375 0.0000 -0.5464
vn -0.8375 -0.0000 -0.5464
vn -0.8375 0.0000 -0.5465
vn 0.6930 0.7030 0.1598
vn 0.6931 0.7029 0.1597
vn 0.6931 0.7029 0.1598
vn 0.6931 0.7030 0.1598
vn -0.2400 0.7330 0.6364
vn 0.1200 0.3933 0.9115
vn -0.3279 0.9001 0.2869
vn -0.2839 0.9566 -0.0649
vn -0.0465 0.8810 -0.4709
vn 0.5198 0.5848 -0.6227
vn 0.9053 0.3308 -0.2666
vn 0.9711 0.2387 0.0083
vn 0.9499 0.1688 0.2631
vn 0.7187 0.1302 0.6830
vn -0.9055 -0.3303 0.2662
vn -0.5198 -0.5848 0.6228
vn -0.9710 -0.2388 -0.0091
vn -0.9501 -0.1693 -0.2619
vn -0.7192 -0.1297 -0.6825
vn -0.1200 -0.3933 -0.9116
vn 0.0450 -0.8806 0.4718
vn 0.2839 -0.9566 0.0661
vn 0.2393 -0.7326 -0.6372
vn 0.3281 -0.8997 -0.2879
vn -0.6930 -0.7030 -0.1598
vn -0.6931 -0.7029 -0.1598
vn -0.6931 -0.7030 -0.1598
vn -0.4270 -0.8784 0.2148
vn -0.4270 -0.8784 0.2149
vn -0.4270 -0.8783 0.2149
vn -0.4269 -0.8784 0.2148
vn -0.4271 -0.8783 0.2148
vn -0.4270 -0.8783 0.2148
vn -0.4271 -0.8783 0.2149
vn -0.8480 -0.4714 -0.2424
vn -0.4106 -0.6250 -0.6639
vn -0.9024 -0.4270 0.0575
vn -0.8699 -0.3902 0.3017
vn -0.6397 -0.3531 0.6826
vn 0.0342 -0.5041 0.8630
vn 0.4265 -0.7260 0.5395
vn 0.5152 -0.8245 0.2341
vn 0.4946 -0.8658 -0.0763
vn 0.2492 -0.8257 -0.5060
vn -0.4273 0.7261 -0.5387
vn -0.0343 0.5041 -0.8630
vn -0.5151 0.8248 -0.2334
vn -0.4947 0.8658 0.0750
vn -0.2504 0.8258 0.5054
vn 0.4106 0.6250 0.6639
vn 0.6389 0.3536 -0.6832
vn 0.8697 0.3899 -0.3027
vn 0.8476 0.4718 0.2427
vn 0.9026 0.4268 -0.0566
vn 0.4270 0.8784 -0.2149
vn 0.4271 0.8783 -0.2149
vn 0.4270 0.8783 -0.2148
vn 0.4270 0.8784 -0.2148
vn 0.4270 0.8783 -0.2149
vn 0.4269 0.8784 -0.2148
vn 0.4180 -0.9034 0.0955
vn 0.4181 -0.9034 0.0955
vn 0.4179 -0.9034 0.0955
vn 0.4179 -0.9034 0.0956
vn 0.4180 -0.9034 0.0956
vn 0.4181 -0.9034 0.0956
vn 0.4181 -0.9033 0.0955
vn -0.0734 -0.5193 0.8514
vn -0.4787 -0.7328 0.4836
vn 0.6226 -0.3754 0.6866
vn 0.8638 -0.4270 0.2674
vn 0.8812 -0.4724 0.0190
vn 0.8189 -0.5144 -0.2546
vn 0.4081 -0.6302 -0.6605
vn -0.2546 -0.7978 -0.5465
vn -0.5082 -0.8462 -0.1599
vn -0.5524 -0.8207 0.1461
vn -0.3826 0.6818 0.6235
vn -0.8253 0.5238 0.2107
vn 0.2759 0.8439 0.4602
vn 0.5195 0.8530 0.0504
vn 0.5501 0.7949 -0.2561
vn 0.4635 0.6761 -0.5727
vn -0.8825 0.4639 -0.0776
vn -0.8569 0.4080 -0.3149
vn 0.0546 0.4418 -0.8954
vn -0.6309 0.3304 -0.7020
vn -0.4180 0.8785 -0.2312
vn -0.4181 0.8785 -0.2313
vn -0.4180 0.8785 -0.2313
vn -0.4181 0.8785 -0.2312
vn -0.4179 0.8785 -0.2312
vn -0.0147 0.9875 0.1569
vn -0.0279 0.9551 -0.2951
vn -0.0472 0.8335 -0.5505
vn -0.2537 0.9154 -0.3125
vn 0.9608 0.2653 0.0807
vn 0.8919 0.3205 -0.3190
vn 0.7677 0.5743 -0.2843
vn 0.7441 0.6510 -0.1499
vn 0.6070 0.4549 -0.6517
vn -0.0166 0.6951 -0.7187
vn -0.2803 0.7587 -0.5880
vn 0.2224 0.8121 -0.5394
vn -0.5314 0.5971 -0.6008
vn -0.8455 0.5103 -0.1573
vn -0.3523 0.7509 -0.5587
vn 0.0109 0.7810 -0.6244
vn 0.6988 0.4270 0.5740
vn 0.3405 0.7264 0.5969
vn -0.3738 0.7890 0.4876
vn 0.0386 0.7645 0.6435
vn -0.5416 0.8106 0.2227
vn -0.7536 0.6545 0.0602
vn -0.8045 0.5827 0.1147
vn -0.4303 0.7405 0.5162
vn -0.5685 0.7531 0.3311
vn 0.2566 0.9641 -0.0685
vn -0.0890 0.9735 -0.2106
vn -0.5023 0.8637 -0.0417
vn 0.0122 0.9856 0.1689
vn -0.7251 0.4258 -0.5412
vn -0.9297 0.3551 -0.0984
vn -0.7646 0.6401 -0.0754
vn -0.6639 0.6565 -0.3582
vn -0.9118 0.3442 0.2240
vn -0.6783 0.3859 0.6253
vn -0.7174 0.5934 0.3650
vn -0.8285 0.5515 0.0971
vn 0.0949 0.5529 -0.8278
vn 0.2325 0.6916 -0.6838
vn 0.7297 0.6451 -0.2267
vn 0.9280 0.3073 -0.2108
vn 0.2669 0.6776 0.6852
vn 0.1850 0.5259 0.8302
vn 0.9274 0.3193 0.1950
vn 0.7785 0.6075 0.1580
vn -0.0984 0.9550 0.2799
vn 0.2756 0.9588 0.0686
vn 0.3469 0.9314 -0.1104
vn -0.1521 0.9685 -0.1972
vn 0.3530 0.6317 0.6902
vn 0.8608 0.3507 0.3689
vn 0.6511 0.6580 0.3783
vn 0.2832 0.7686 0.5736
vn 0.9502 0.2927 0.1072
vn 0.9188 0.3339 -0.2103
vn 0.7741 0.6170 -0.1416
vn 0.7895 0.6112 0.0551
vn 0.6826 0.3901 -0.6180
vn -0.1262 0.4733 -0.8718
vn -0.0164 0.7001 -0.7138
vn 0.5852 0.6499 -0.4849
vn -0.2958 0.6276 0.7202
vn -0.3797 0.7156 0.5863
vn -0.7132 0.6439 0.2769
vn -0.8916 0.3355 0.3041
vn -0.3444 0.9369 0.0600
vn -0.7030 0.5944 -0.3904
vn -0.7718 0.3720 -0.5157
vn -0.9534 0.2990 -0.0410
vn -0.8101 0.5816 -0.0743
vn 0.1005 0.9838 -0.1487
vn -0.1955 0.9710 -0.1375
vn -0.3321 0.9250 0.1845
vn 0.8347 0.5176 -0.1881
vn 0.4301 0.7121 -0.5549
vn 0.3934 0.8204 -0.4148
vn 0.0794 0.7482 -0.6587
vn -0.4683 0.5306 -0.7065
vn -0.1514 0.7212 -0.6760
vn 0.2708 0.7806 -0.5633
vn -0.9055 0.3573 -0.2291
vn -0.9027 0.3825 0.1968
vn -0.8131 0.5716 0.1100
vn -0.7891 0.6047 -0.1078
vn 0.8589 0.5051 0.0843
vn 0.4342 0.8986 0.0633
vn 0.6531 0.6758 0.3417
vn 0.6953 0.5341 0.4809
vn 0.1755 0.9551 0.2387
vn -0.5422 0.7013 0.4628
vn -0.6623 0.4882 0.5683
vn 0.1095 0.6427 0.7583
vn 0.0468 0.7674 0.6395
vn -0.3206 0.9377 0.1341
vn 0.1488 0.9828 -0.1092
vn 0.5394 0.8213 -0.1857
vn -0.0201 0.9683 -0.2488
vn 0.0460 0.6559 0.7535
vn 0.7133 0.4454 0.5411
vn 0.5268 0.7082 0.4700
vn 0.0271 0.7831 0.6213
vn 0.8936 0.3683 0.2565
vn 0.8977 0.4386 -0.0415
vn 0.7834 0.6076 -0.1306
vn 0.7309 0.6818 0.0295
vn 0.8169 0.4513 -0.3590
vn 0.2094 0.5986 -0.7732
vn 0.3402 0.7250 -0.5989
vn 0.7028 0.6556 -0.2762
vn -0.6007 0.5592 0.5714
vn -0.6866 0.6326 0.3584
vn -0.8075 0.5898 0.0058
vn -0.9075 0.4102 0.0902
vn -0.5087 0.8555 -0.0969
vn -0.4777 0.6989 -0.5323
vn -0.4605 0.5658 -0.6840
vn -0.8793 0.4171 -0.2301
vn -0.7311 0.6488 -0.2110
vn 0.1552 0.9775 -0.1427
vn -0.3208 0.9362 -0.1436
vn -0.4420 0.8877 0.1291
vn 0.1600 0.9813 0.1072
vn -0.9375 0.3171 -0.1430
vn -0.8703 0.3972 0.2911
vn -0.7307 0.6507 0.2063
vn -0.7943 0.6060 -0.0435
vn -0.4804 0.4743 0.7377
vn 0.2271 0.4256 0.8759
vn -0.0629 0.7277 0.6830
vn -0.5265 0.6403 0.5592
vn -0.4516 0.4603 -0.7643
vn -0.3294 0.6509 -0.6840
vn 0.4431 0.7281 -0.5231
vn 0.5965 0.4245 -0.6812
vn 0.7060 0.6051 0.3679
vn 0.7692 0.4093 0.4907
vn 0.9228 0.3320 -0.1954
vn 0.7926 0.5963 -0.1274
# 304 vertex normals

vt 0.5492 0.4561 0.0000
vt 0.5492 0.3854 0.0000
vt 0.5492 0.3790 0.0000
vt 0.5492 0.3893 0.0000
vt 0.5492 0.3726 0.0000
vt 0.5492 0.3686 0.0000
vt 0.5492 0.4689 0.0000
vt 0.5492 0.4768 0.0000
vt 0.5492 0.4434 0.0000
vt 0.5492 0.4354 0.0000
vt 0.5113 0.3216 0.0000
vt 0.5114 0.3471 0.0000
vt 0.5112 0.3471 0.0000
vt 0.5112 0.3216 0.0000
vt 0.5114 0.3629 0.0000
vt 0.5113 0.3629 0.0000
vt 0.5115 0.3629 0.0000
vt 0.5116 0.3471 0.0000
vt 0.5115 0.3471 0.0000
vt 0.5116 0.3216 0.0000
vt 0.5115 0.3216 0.0000
vt 0.5114 0.2802 0.0000
vt 0.5114 0.2961 0.0000
vt 0.5112 0.2961 0.0000
vt 0.5113 0.2802 0.0000
vt 0.5116 0.2961 0.0000
vt 0.5115 0.2961 0.0000
vt 0.5115 0.2802 0.0000
vt 0.5106 0.3749 0.0000
vt 0.5107 0.3864 0.0000
vt 0.5115 0.3102 0.0000
vt 0.5114 0.2987 0.0000
vt 0.5108 0.3937 0.0000
vt 0.5115 0.3175 0.0000
vt 0.5108 0.3940 0.0000
vt 0.5116 0.3178 0.0000
vt 0.5108 0.3872 0.0000
vt 0.5116 0.3110 0.0000
vt 0.5108 0.3759 0.0000
vt 0.5116 0.2997 0.0000
vt 0.5107 0.3568 0.0000
vt 0.5106 0.3636 0.0000
vt 0.5114 0.2874 0.0000
vt 0.5114 0.2806 0.0000
vt 0.5108 0.3644 0.0000
vt 0.5115 0.2882 0.0000
vt 0.5107 0.3571 0.0000
vt 0.5115 0.2809 0.0000
vt 0.5115 0.3406 0.0000
vt 0.5115 0.3725 0.0000
vt 0.5112 0.3725 0.0000
vt 0.5112 0.3406 0.0000
vt 0.5115 0.3922 0.0000
vt 0.5112 0.3922 0.0000
vt 0.5116 0.3922 0.0000
vt 0.5113 0.3922 0.0000
vt 0.5116 0.3725 0.0000
vt 0.5113 0.3725 0.0000
vt 0.5116 0.3406 0.0000
vt 0.5113 0.3406 0.0000
vt 0.5115 0.2889 0.0000
vt 0.5115 0.3087 0.0000
vt 0.5112 0.3087 0.0000
vt 0.5112 0.2889 0.0000
vt 0.5116 0.3087 0.0000
vt 0.5113 0.3087 0.0000
vt 0.5116 0.2889 0.0000
vt 0.5113 0.2889 0.0000
vt 0.5116 0.3850 0.0000
vt 0.5116 0.3893 0.0000
vt 0.5116 0.2968 0.0000
vt 0.5116 0.2925 0.0000
vt 0.5116 0.3927 0.0000
vt 0.5116 0.3003 0.0000
vt 0.5116 0.3940 0.0000
vt 0.5116 0.3016 0.0000
vt 0.5116 0.3926 0.0000
vt 0.5116 0.3002 0.0000
vt 0.5116 0.3891 0.0000
vt 0.5116 0.2966 0.0000
vt 0.5116 0.3800 0.0000
vt 0.5116 0.3814 0.0000
vt 0.5116 0.2890 0.0000
vt 0.5116 0.2876 0.0000
vt 0.5116 0.3848 0.0000
vt 0.5116 0.2923 0.0000
vt 0.5116 0.3813 0.0000
vt 0.5116 0.2888 0.0000
vt 0.2627 0.3719 0.0000
vt 0.2627 0.3923 0.0000
vt 0.2627 0.4035 0.0000
vt 0.2627 0.3973 0.0000
vt 0.2627 0.3876 0.0000
vt 0.2628 0.4259 0.0000
vt 0.2628 0.4159 0.0000
vt 0.2627 0.3966 0.0000
vt 0.2627 0.3588 0.0000
vt 0.2627 0.3730 0.0000
vt 0.2627 0.3595 0.0000
vt 0.2627 0.3489 0.0000
vt 0.2627 0.3721 0.0000
vt 0.2626 0.3548 0.0000
vt 0.2626 0.3509 0.0000
vt 0.2626 0.3576 0.0000
vt 0.2628 0.4144 0.0000
vt 0.2628 0.4232 0.0000
vt 0.2628 0.4122 0.0000
vt 0.2628 0.4010 0.0000
vt 0.2627 0.3618 0.0000
vt 0.2627 0.3388 0.0000
vt 0.2627 0.3409 0.0000
vt 0.2627 0.3138 0.0000
vt 0.2627 0.3197 0.0000
vt 0.2627 0.3609 0.0000
vt 0.2627 0.3604 0.0000
vt 0.2627 0.3794 0.0000
vt 0.2627 0.3770 0.0000
vt 0.2627 0.3765 0.0000
vt 0.2627 0.3856 0.0000
vt 0.2627 0.3861 0.0000
vt 0.2627 0.3882 0.0000
vt 0.2627 0.3897 0.0000
vt 0.2627 0.3894 0.0000
vt 0.2627 0.3552 0.0000
vt 0.2627 0.3543 0.0000
vt 0.2627 0.3528 0.0000
vt 0.2627 0.3835 0.0000
vt 0.2627 0.3864 0.0000
vt 0.2627 0.3499 0.0000
vt 0.2627 0.3519 0.0000
vt 0.2627 0.4000 0.0000
vt 0.2627 0.4003 0.0000
vt 0.2627 0.3921 0.0000
vt 0.2627 0.3896 0.0000
vt 0.2627 0.3454 0.0000
vt 0.2627 0.3440 0.0000
vt 0.2627 0.3886 0.0000
vt 0.2627 0.3762 0.0000
vt 0.2627 0.3821 0.0000
vt 0.2627 0.4062 0.0000
vt 0.2627 0.3687 0.0000
# 141 texture coords

o Deco1_06
g Deco1_06
usemtl Arbres_04_05___Default
s 1
f 1/1/1 2/2/1 3/3/2 
f 1/1/1 4/4/2 2/2/1 
f 1/1/1 5/4/1 4/4/2 
f 1/1/1 6/2/1 5/4/1 
f 1/1/1 7/3/2 6/2/1 
f 1/1/1 8/5/2 7/3/2 
f 1/1/1 9/6/2 8/5/2 
f 1/1/1 10/6/1 9/6/2 
f 1/1/1 11/5/1 10/6/1 
f 1/1/1 3/3/2 11/5/1 
f 3/3/2 2/2/1 12/7/3 13/1/4 
f 2/2/1 4/4/2 14/8/5 12/7/3 
f 4/4/2 5/4/1 15/8/6 14/8/5 
f 5/4/1 6/2/1 16/7/7 15/8/6 
f 6/2/1 7/3/2 17/1/8 16/7/7 
f 7/3/2 8/5/2 18/9/9 17/1/8 
f 8/5/2 9/6/2 19/10/10 18/9/9 
f 9/6/2 10/6/1 20/10/11 19/10/10 
f 10/6/1 11/5/1 21/9/12 20/10/11 
f 11/5/1 3/3/2 13/1/4 21/9/12 
s 2
f 13/11/4 12/12/3 22/13/13 23/14/14 
f 12/12/3 14/15/5 24/16/15 22/13/13 
f 14/15/5 15/17/6 25/15/16 24/16/15 
f 15/17/6 16/18/7 26/19/17 25/15/16 
f 16/18/7 17/20/8 27/21/18 26/19/17 
f 20/22/11 21/23/12 28/24/19 29/25/20 
f 21/23/12 13/11/4 23/14/14 28/24/19 
f 17/20/8 18/26/9 30/27/21 27/21/18 
f 18/26/9 19/28/10 31/22/22 30/27/21 
s 1
f 23/1/14 22/7/13 32/2/23 33/3/23 
f 22/7/13 24/8/15 34/4/24 32/2/23 
f 24/8/15 25/8/16 35/4/23 34/4/24 
f 25/8/16 26/7/17 36/2/23 35/4/23 
f 26/7/17 27/1/18 37/3/24 36/2/23 
f 27/1/18 30/9/21 38/5/24 37/3/24 
f 30/9/21 31/10/22 39/6/25 38/5/24 
f 31/10/22 29/10/20 40/6/23 39/6/25 
f 29/10/20 28/9/19 41/5/23 40/6/23 
f 28/9/19 23/1/14 33/3/23 41/5/23 
f 42/1/23 33/3/23 32/2/23 
f 42/1/23 32/2/23 34/4/24 
f 42/1/23 34/4/24 35/4/23 
f 42/1/23 35/4/23 36/2/23 
f 42/1/23 36/2/23 37/3/24 
f 42/1/23 37/3/24 38/5/24 
f 42/1/23 38/5/24 39/6/25 
f 42/1/23 39/6/25 40/6/23 
f 42/1/23 40/6/23 41/5/23 
f 42/1/23 41/5/23 33/3/23 
s 4
f 19/28/10 20/22/11 29/25/20 31/22/22 
s 1
f 43/1/26 44/2/26 45/3/26 
f 43/1/26 46/4/26 44/2/26 
f 43/1/26 47/4/26 46/4/26 
f 43/1/26 48/2/27 47/4/26 
f 43/1/26 49/3/27 48/2/27 
f 43/1/26 50/5/26 49/3/27 
f 43/1/26 51/6/26 50/5/26 
f 43/1/26 52/6/26 51/6/26 
f 43/1/26 53/5/26 52/6/26 
f 43/1/26 45/3/26 53/5/26 
f 45/3/26 44/2/26 54/7/28 55/1/29 
f 44/2/26 46/4/26 56/8/30 54/7/28 
f 46/4/26 47/4/26 57/8/31 56/8/30 
f 47/4/26 48/2/27 58/7/32 57/8/31 
f 48/2/27 49/3/27 59/1/33 58/7/32 
f 49/3/27 50/5/26 60/9/34 59/1/33 
f 50/5/26 51/6/26 61/10/35 60/9/34 
f 51/6/26 52/6/26 62/10/36 61/10/35 
f 52/6/26 53/5/26 63/9/37 62/10/36 
f 53/5/26 45/3/26 55/1/29 63/9/37 
s 2
f 55/29/29 54/30/28 64/31/38 65/32/39 
f 54/30/28 56/33/30 66/34/40 64/31/38 
f 56/33/30 57/35/31 67/36/41 66/34/40 
f 57/35/31 58/37/32 68/38/42 67/36/41 
f 58/37/32 59/39/33 69/40/43 68/38/42 
f 62/41/36 63/42/37 70/43/44 71/44/45 
f 63/42/37 55/29/29 65/32/39 70/43/44 
f 59/39/33 60/45/34 72/46/46 69/40/43 
s 4
f 60/45/34 61/47/35 73/48/47 72/46/46 
s 1
f 65/1/39 64/7/38 74/2/48 75/3/48 
f 64/7/38 66/8/40 76/4/48 74/2/48 
f 66/8/40 67/8/41 77/4/48 76/4/48 
f 67/8/41 68/7/42 78/2/48 77/4/48 
f 68/7/42 69/1/43 79/3/48 78/2/48 
f 69/1/43 72/9/46 80/5/48 79/3/48 
f 72/9/46 73/10/47 81/6/48 80/5/48 
f 73/10/47 71/10/45 82/6/48 81/6/48 
f 71/10/45 70/9/44 83/5/48 82/6/48 
f 70/9/44 65/1/39 75/3/48 83/5/48 
f 84/1/48 75/3/48 74/2/48 
f 84/1/48 74/2/48 76/4/48 
f 84/1/48 76/4/48 77/4/48 
f 84/1/48 77/4/48 78/2/48 
f 84/1/48 78/2/48 79/3/48 
f 84/1/48 79/3/48 80/5/48 
f 84/1/48 80/5/48 81/6/48 
f 84/1/48 81/6/48 82/6/48 
f 84/1/48 82/6/48 83/5/48 
f 84/1/48 83/5/48 75/3/48 
s 2
f 61/47/35 62/41/36 71/44/45 73/48/47 
s 1
f 85/1/49 86/2/50 87/3/49 
f 85/1/49 88/4/50 86/2/50 
f 85/1/49 89/4/50 88/4/50 
f 85/1/49 90/2/50 89/4/50 
f 85/1/49 91/3/51 90/2/50 
f 85/1/49 92/5/49 91/3/51 
f 85/1/49 93/6/49 92/5/49 
f 85/1/49 94/6/49 93/6/49 
f 85/1/49 95/5/49 94/6/49 
f 85/1/49 87/3/49 95/5/49 
f 87/3/49 86/2/50 96/7/52 97/1/53 
f 86/2/50 88/4/50 98/8/54 96/7/52 
f 88/4/50 89/4/50 99/8/55 98/8/54 
f 89/4/50 90/2/50 100/7/56 99/8/55 
f 90/2/50 91/3/51 101/1/57 100/7/56 
f 91/3/51 92/5/49 102/9/58 101/1/57 
f 92/5/49 93/6/49 103/10/59 102/9/58 
f 93/6/49 94/6/49 104/10/60 103/10/59 
f 94/6/49 95/5/49 105/9/61 104/10/60 
f 95/5/49 87/3/49 97/1/53 105/9/61 
s 2
f 97/49/53 96/50/52 106/51/62 107/52/63 
f 96/50/52 98/53/54 108/54/64 106/51/62 
f 98/53/54 99/55/55 109/56/65 108/54/64 
f 99/55/55 100/57/56 110/58/66 109/56/65 
f 100/57/56 101/59/57 111/60/67 110/58/66 
f 104/61/60 105/62/61 112/63/68 113/64/69 
f 105/62/61 97/49/53 107/52/63 112/63/68 
f 101/59/57 102/65/58 114/66/70 111/60/67 
f 102/65/58 103/67/59 115/68/71 114/66/70 
s 1
f 107/1/63 106/7/62 116/2/72 117/3/73 
f 106/7/62 108/8/64 118/4/74 116/2/72 
f 108/8/64 109/8/65 119/4/72 118/4/74 
f 109/8/65 110/7/66 120/2/74 119/4/72 
f 110/7/66 111/1/67 121/3/72 120/2/74 
f 111/1/67 114/9/70 122/5/73 121/3/72 
f 114/9/70 115/10/71 123/6/72 122/5/73 
f 115/10/71 113/10/69 124/6/74 123/6/72 
f 113/10/69 112/9/68 125/5/73 124/6/74 
f 112/9/68 107/1/63 117/3/73 125/5/73 
f 126/1/73 117/3/73 116/2/72 
f 126/1/73 116/2/72 118/4/74 
f 126/1/73 118/4/74 119/4/72 
f 126/1/73 119/4/72 120/2/74 
f 126/1/73 120/2/74 121/3/72 
f 126/1/73 121/3/72 122/5/73 
f 126/1/73 122/5/73 123/6/72 
f 126/1/73 123/6/72 124/6/74 
f 126/1/73 124/6/74 125/5/73 
f 126/1/73 125/5/73 117/3/73 
s 4
f 103/67/59 104/61/60 113/64/69 115/68/71 
s 1
f 127/1/75 128/2/76 129/3/75 
f 127/1/75 130/4/75 128/2/76 
f 127/1/75 131/4/77 130/4/75 
f 127/1/75 132/2/75 131/4/77 
f 127/1/75 133/3/75 132/2/75 
f 127/1/75 134/5/75 133/3/75 
f 127/1/75 135/6/78 134/5/75 
f 127/1/75 136/6/75 135/6/78 
f 127/1/75 137/5/75 136/6/75 
f 127/1/75 129/3/75 137/5/75 
f 129/3/75 128/2/76 138/7/79 139/1/80 
f 128/2/76 130/4/75 140/8/81 138/7/79 
f 130/4/75 131/4/77 141/8/82 140/8/81 
f 131/4/77 132/2/75 142/7/83 141/8/82 
f 132/2/75 133/3/75 143/1/84 142/7/83 
f 133/3/75 134/5/75 144/9/85 143/1/84 
f 134/5/75 135/6/78 145/10/86 144/9/85 
f 135/6/78 136/6/75 146/10/87 145/10/86 
f 136/6/75 137/5/75 147/9/88 146/10/87 
f 137/5/75 129/3/75 139/1/80 147/9/88 
s 2
f 139/69/80 138/70/79 148/71/89 149/72/90 
f 138/70/79 140/73/81 150/74/91 148/71/89 
f 140/73/81 141/75/82 151/76/92 150/74/91 
f 141/75/82 142/77/83 152/78/93 151/76/92 
f 142/77/83 143/79/84 153/80/94 152/78/93 
f 146/81/87 147/82/88 154/83/95 155/84/96 
f 147/82/88 139/69/80 149/72/90 154/83/95 
f 143/79/84 144/85/85 156/86/97 153/80/94 
f 144/85/85 145/87/86 157/88/98 156/86/97 
s 1
f 149/1/90 148/7/89 158/2/99 159/3/99 
f 148/7/89 150/8/91 160/4/99 158/2/99 
f 150/8/91 151/8/92 161/4/99 160/4/99 
f 151/8/92 152/7/93 162/2/99 161/4/99 
f 152/7/93 153/1/94 163/3/100 162/2/99 
f 153/1/94 156/9/97 164/5/99 163/3/100 
f 156/9/97 157/10/98 165/6/101 164/5/99 
f 157/10/98 155/10/96 166/6/100 165/6/101 
f 155/10/96 154/9/95 167/5/99 166/6/100 
f 154/9/95 149/1/90 159/3/99 167/5/99 
f 168/1/99 159/3/99 158/2/99 
f 168/1/99 158/2/99 160/4/99 
f 168/1/99 160/4/99 161/4/99 
f 168/1/99 161/4/99 162/2/99 
f 168/1/99 162/2/99 163/3/100 
f 168/1/99 163/3/100 164/5/99 
f 168/1/99 164/5/99 165/6/101 
f 168/1/99 165/6/101 166/6/100 
f 168/1/99 166/6/100 167/5/99 
f 168/1/99 167/5/99 159/3/99 
s 2
f 145/87/86 146/81/87 155/84/96 157/88/98 
s 1
f 169/1/102 170/2/103 171/3/104 
f 169/1/102 172/4/105 170/2/103 
f 169/1/102 173/4/102 172/4/105 
f 169/1/102 174/2/103 173/4/102 
f 169/1/102 175/3/102 174/2/103 
f 169/1/102 176/5/106 175/3/102 
f 169/1/102 177/6/106 176/5/106 
f 169/1/102 178/6/107 177/6/106 
f 169/1/102 179/5/108 178/6/107 
f 169/1/102 171/3/104 179/5/108 
f 171/3/104 170/2/103 180/7/109 181/1/110 
f 170/2/103 172/4/105 182/8/111 180/7/109 
f 172/4/105 173/4/102 183/8/112 182/8/111 
f 173/4/102 174/2/103 184/7/113 183/8/112 
f 174/2/103 175/3/102 185/1/114 184/7/113 
f 175/3/102 176/5/106 186/9/115 185/1/114 
f 176/5/106 177/6/106 187/10/116 186/9/115 
f 177/6/106 178/6/107 188/10/117 187/10/116 
f 178/6/107 179/5/108 189/9/118 188/10/117 
f 179/5/108 171/3/104 181/1/110 189/9/118 
s 2
f 181/49/110 180/50/109 190/51/119 191/52/120 
f 180/50/109 182/53/111 192/54/121 190/51/119 
f 182/53/111 183/55/112 193/56/122 192/54/121 
f 183/55/112 184/57/113 194/58/123 193/56/122 
f 184/57/113 185/59/114 195/60/124 194/58/123 
f 188/61/117 189/62/118 196/63/125 197/64/126 
s 4
f 189/62/118 181/49/110 191/52/120 196/63/125 
s 2
f 185/59/114 186/65/115 198/66/127 195/60/124 
f 186/65/115 187/67/116 199/68/128 198/66/127 
s 1
f 191/1/120 190/7/119 200/2/129 201/3/130 
f 190/7/119 192/8/121 202/4/131 200/2/129 
f 192/8/121 193/8/122 203/4/132 202/4/131 
f 193/8/122 194/7/123 204/2/129 203/4/132 
f 194/7/123 195/1/124 205/3/131 204/2/129 
f 195/1/124 198/9/127 206/5/133 205/3/131 
f 198/9/127 199/10/128 207/6/132 206/5/133 
f 199/10/128 197/10/126 208/6/134 207/6/132 
f 197/10/126 196/9/125 209/5/133 208/6/134 
f 196/9/125 191/1/120 201/3/130 209/5/133 
f 210/1/131 201/3/130 200/2/129 
f 210/1/131 200/2/129 202/4/131 
f 210/1/131 202/4/131 203/4/132 
f 210/1/131 203/4/132 204/2/129 
f 210/1/131 204/2/129 205/3/131 
f 210/1/131 205/3/131 206/5/133 
f 210/1/131 206/5/133 207/6/132 
f 210/1/131 207/6/132 208/6/134 
f 210/1/131 208/6/134 209/5/133 
f 210/1/131 209/5/133 201/3/130 
s 2
f 187/67/116 188/61/117 197/64/126 199/68/128 
s 1
f 211/1/135 212/2/135 213/3/136 
f 211/1/135 214/4/137 212/2/135 
f 211/1/135 215/4/135 214/4/137 
f 211/1/135 216/2/135 215/4/135 
f 211/1/135 217/3/138 216/2/135 
f 211/1/135 218/5/139 217/3/138 
f 211/1/135 219/6/140 218/5/139 
f 211/1/135 220/6/136 219/6/140 
f 211/1/135 221/5/141 220/6/136 
f 211/1/135 213/3/136 221/5/141 
f 213/3/136 212/2/135 222/7/142 223/1/143 
f 212/2/135 214/4/137 224/8/144 222/7/142 
f 214/4/137 215/4/135 225/8/145 224/8/144 
f 215/4/135 216/2/135 226/7/146 225/8/145 
f 216/2/135 217/3/138 227/1/147 226/7/146 
f 217/3/138 218/5/139 228/9/148 227/1/147 
f 218/5/139 219/6/140 229/10/149 228/9/148 
f 219/6/140 220/6/136 230/10/150 229/10/149 
f 220/6/136 221/5/141 231/9/151 230/10/150 
f 221/5/141 213/3/136 223/1/143 231/9/151 
s 2
f 223/49/143 222/50/142 232/51/152 233/52/153 
f 222/50/142 224/53/144 234/54/154 232/51/152 
f 224/53/144 225/55/145 235/56/155 234/54/154 
f 225/55/145 226/57/146 236/58/156 235/56/155 
f 226/57/146 227/59/147 237/60/157 236/58/156 
f 230/61/150 231/62/151 238/63/158 239/64/159 
f 231/62/151 223/49/143 233/52/153 238/63/158 
f 227/59/147 228/65/148 240/66/160 237/60/157 
s 4
f 228/65/148 229/67/149 241/68/161 240/66/160 
s 1
f 233/1/153 232/7/152 242/2/162 243/3/163 
f 232/7/152 234/8/154 244/4/164 242/2/162 
f 234/8/154 235/8/155 245/4/164 244/4/164 
f 235/8/155 236/7/156 246/2/165 245/4/164 
f 236/7/156 237/1/157 247/3/164 246/2/165 
f 237/1/157 240/9/160 248/5/165 247/3/164 
f 240/9/160 241/10/161 249/6/162 248/5/165 
f 241/10/161 239/10/159 250/6/166 249/6/162 
f 239/10/159 238/9/158 251/5/164 250/6/166 
f 238/9/158 233/1/153 243/3/163 251/5/164 
f 252/1/164 243/3/163 242/2/162 
f 252/1/164 242/2/162 244/4/164 
f 252/1/164 244/4/164 245/4/164 
f 252/1/164 245/4/164 246/2/165 
f 252/1/164 246/2/165 247/3/164 
f 252/1/164 247/3/164 248/5/165 
f 252/1/164 248/5/165 249/6/162 
f 252/1/164 249/6/162 250/6/166 
f 252/1/164 250/6/166 251/5/164 
f 252/1/164 251/5/164 243/3/163 
s 2
f 229/67/149 230/61/150 239/64/159 241/68/161 
s 1
f 253/89/167 254/90/168 255/91/169 256/92/170 
f 257/93/171 258/94/172 259/95/173 260/96/174 
f 261/97/175 262/98/176 263/99/177 264/100/178 
f 265/101/179 266/102/180 267/103/181 268/104/182 
f 269/105/183 270/106/184 271/107/185 272/108/186 
f 253/89/167 256/92/170 273/109/187 
f 274/110/188 275/111/189 276/112/190 277/113/191 
f 260/114/174 253/115/167 270/97/184 
f 264/116/178 254/117/168 259/118/173 
f 274/119/188 256/120/170 267/121/181 
f 268/122/182 255/93/169 263/123/177 
f 273/124/187 277/125/191 271/126/185 
f 253/115/167 260/114/174 259/118/173 254/117/168 
f 254/117/168 264/116/178 263/123/177 255/93/169 
f 255/93/169 268/122/182 267/121/181 256/120/170 
f 258/127/172 261/128/175 264/116/178 259/118/173 
f 269/129/183 257/130/171 260/114/174 270/97/184 
f 262/131/176 265/132/179 268/122/182 263/123/177 
f 274/119/188 267/121/181 266/133/180 275/134/189 
f 276/135/190 272/136/186 271/126/185 277/125/191 
f 270/97/184 253/115/167 273/124/187 271/126/185 
f 256/120/170 274/119/188 277/125/191 273/124/187 
f 278/89/192 279/90/193 280/91/194 281/92/195 
f 282/97/196 283/98/197 284/99/198 285/100/199 
f 286/101/200 287/102/201 288/103/202 289/104/203 
f 290/94/204 291/95/205 292/137/206 293/138/207 
f 294/110/208 295/111/209 296/112/210 297/113/211 
f 285/116/199 279/117/193 291/118/205 
f 294/119/208 281/120/195 288/121/202 
f 289/122/203 280/93/194 284/123/198 
f 278/115/192 297/125/211 292/126/206 
f 279/117/193 285/116/199 284/123/198 280/93/194 
f 280/93/194 289/122/203 288/121/202 281/120/195 
f 290/127/204 282/128/196 285/116/199 291/118/205 
f 283/131/197 286/132/200 289/122/203 284/123/198 
f 294/119/208 288/121/202 287/133/201 295/134/209 
f 296/135/210 293/136/207 292/126/206 297/125/211 
f 291/118/205 279/117/193 278/115/192 292/126/206 
f 281/120/195 294/119/208 297/125/211 278/115/192 
f 298/89/212 299/90/213 300/91/214 301/92/215 
f 302/93/216 303/94/217 304/95/218 305/96/219 
f 306/97/220 307/98/221 308/99/222 309/100/223 
f 310/101/224 311/102/225 312/103/226 313/104/227 
f 314/105/228 315/106/229 316/107/230 317/108/231 
f 298/89/212 301/92/215 318/109/232 
f 319/110/233 320/111/234 321/112/235 322/113/236 
f 305/114/219 298/115/212 315/97/229 
f 309/116/223 299/117/213 304/118/218 
f 319/119/233 301/120/215 312/121/226 
f 313/122/227 300/93/214 308/123/222 
f 318/124/232 322/125/236 316/126/230 
f 298/115/212 305/114/219 304/118/218 299/117/213 
f 299/117/213 309/116/223 308/123/222 300/93/214 
f 300/93/214 313/122/227 312/121/226 301/120/215 
f 303/127/217 306/128/220 309/116/223 304/118/218 
f 314/129/228 302/130/216 305/114/219 315/97/229 
f 307/131/221 310/132/224 313/122/227 308/123/222 
f 319/119/233 312/121/226 311/133/225 320/134/234 
f 321/135/235 317/136/231 316/126/230 322/125/236 
f 315/97/229 298/115/212 318/124/232 316/126/230 
f 301/120/215 319/119/233 322/125/236 318/124/232 
f 323/139/237 324/91/238 325/92/239 
f 326/93/240 327/94/241 328/140/242 
f 329/97/243 330/98/244 331/99/245 332/100/246 
f 333/101/247 334/102/248 335/103/249 336/104/250 
f 337/105/251 338/106/252 339/107/253 340/108/254 
f 323/139/237 325/92/239 341/109/255 
f 342/110/256 343/111/257 344/112/258 345/113/259 
f 328/141/242 323/141/237 338/97/252 
f 332/116/246 323/141/237 328/141/242 
f 342/119/256 325/120/239 335/121/249 
f 336/122/250 324/93/238 331/123/245 
f 341/124/255 345/125/259 339/126/253 
f 323/141/237 332/116/246 331/123/245 324/93/238 
f 324/93/238 336/122/250 335/121/249 325/120/239 
f 327/127/241 329/128/243 332/116/246 328/141/242 
f 337/129/251 326/130/240 328/141/242 338/97/252 
f 330/131/244 333/132/247 336/122/250 331/123/245 
f 342/119/256 335/121/249 334/133/248 343/134/257 
f 344/135/258 340/136/254 339/126/253 345/125/259 
f 338/97/252 323/141/237 341/124/255 339/126/253 
f 325/120/239 342/119/256 345/125/259 341/124/255 
f 346/89/260 347/90/261 348/91/262 349/92/263 
f 350/93/264 351/94/265 352/95/266 353/96/267 
f 354/97/268 355/98/269 356/99/270 357/100/271 
f 358/101/272 359/102/273 360/103/274 361/104/275 
f 362/105/276 363/106/277 364/107/278 365/108/279 
f 346/89/260 349/92/263 366/109/280 
f 367/110/281 368/111/282 369/112/283 370/113/284 
f 353/114/267 346/115/260 363/97/277 
f 357/116/271 347/117/261 352/118/266 
f 367/119/281 349/120/263 360/121/274 
f 361/122/275 348/93/262 356/123/270 
f 366/124/280 370/125/284 364/126/278 
f 346/115/260 353/114/267 352/118/266 347/117/261 
f 347/117/261 357/116/271 356/123/270 348/93/262 
f 348/93/262 361/122/275 360/121/274 349/120/263 
f 351/127/265 354/128/268 357/116/271 352/118/266 
f 362/129/276 350/130/264 353/114/267 363/97/277 
f 355/131/269 358/132/272 361/122/275 356/123/270 
f 367/119/281 360/121/274 359/133/273 368/134/282 
f 369/135/283 365/136/279 364/126/278 370/125/284 
f 363/97/277 346/115/260 366/124/280 364/126/278 
f 349/120/263 367/119/281 370/125/284 366/124/280 
f 371/89/285 372/90/286 373/91/287 374/92/288 
f 375/97/289 376/98/290 377/99/291 378/100/292 
f 379/101/293 380/102/294 381/103/295 382/104/296 
s 2
f 383/94/297 384/95/298 385/137/299 386/138/300 
s 1
f 387/110/301 388/111/302 389/112/303 390/113/304 
f 378/116/292 372/117/286 384/118/298 
f 387/119/301 374/120/288 381/121/295 
f 382/122/296 373/93/287 377/123/291 
f 371/115/285 390/125/304 385/126/299 
f 372/117/286 378/116/292 377/123/291 373/93/287 
f 373/93/287 382/122/296 381/121/295 374/120/288 
f 383/127/297 375/128/289 378/116/292 384/118/298 
f 376/131/290 379/132/293 382/122/296 377/123/291 
f 387/119/301 381/121/295 380/133/294 388/134/302 
f 389/135/303 386/136/300 385/126/299 390/125/304 
f 384/118/298 372/117/286 371/115/285 385/126/299 
f 374/120/288 387/119/301 390/125/304 371/115/285 
# 267 polygons - 154 triangles

